hw8
…
    #weather means
    avg_temp = mean(temperature_c),
    avg_humidity = mean(humidity_percent),
    avg_wind_speed = mean(wind_speed_m_s),
    avg_visibility = mean(visibility_10m),
    avg_dew_point = mean(dew_point_temperature_c),
    avg_solar_rad = mean(solar_radiation_mj_m2),
    .groups = "drop"  # Drop grouping after summary
  )
daily_summ

# A tibble: 353 × 12
   date       seasons holiday total_bikes total_rainfall total_snowfall avg_temp
   <date>     <fct>   <fct>         <dbl>          <dbl>          <dbl>    <dbl>
 1 2017-12-01 Winter  No Hol…        9539            0              0    -2.45  
 2 2017-12-02 Winter  No Hol…        8523            0              0     1.32  
 3 2017-12-03 Winter  No Hol…        7222            4              0     4.88  
 4 2017-12-04 Winter  No Hol…        8729            0.1            0    -0.304 
 5 2017-12-05 Winter  No Hol…        8307            0              0    -4.46  
 6 2017-12-06 Winter  No Hol…        6669            1.3            8.6   0.0458
 7 2017-12-07 Winter  No Hol…        8549            0             10.4   1.09  
 8 2017-12-08 Winter  No Hol…        8032            0              0    -3.82  
 9 2017-12-09 Winter  No Hol…        7233            0              0    -0.846 
10 2017-12-10 Winter  No Hol…        3453            4.1           32.5   1.19  
# ℹ 343 more rows
# ℹ 5 more variables: avg_humidity <dbl>, avg_wind_speed <dbl>,
#   avg_visibility <dbl>, avg_dew_point <dbl>, avg_solar_rad <dbl>
…
                     median = \(x) median(x, na.rm = TRUE),
                     iqr = \(x) IQR(x, na.rm = TRUE),
                     min = \(x) min(x, na.rm = TRUE),
                     max = \(x) max(x, na.rm = TRUE),
                     n_missing = \(x) sum(is.na(x))
                   ))) |>
  pivot_longer(
    everything(),
    names_to = c("column", "stat"),
    names_pattern = "(.*)_(.*)",
    values_to = "values"
  )
bike_summ_nums

# A tibble: 63 × 3
   column         stat      values
   <chr>          <chr>      <dbl>
 1 total_bikes    mean    17485.  
 2 total_bikes    sd       9937.  
 3 total_bikes    median  18563   
 4 total_bikes    iqr     19318   
 5 total_bikes    min       977   
 6 total_bikes    max     36149   
 7 total_bikes_n  missing     0   
 8 total_rainfall mean        3.58
 9 total_rainfall sd         11.8 
10 total_rainfall median      0   
# ℹ 53 more rows
…
# Get test set metrics
collect_metrics(final_fit)

# A tibble: 2 × 4
  .metric .estimator .estimate .config             
  <chr>   <chr>          <dbl> <chr>               
1 rmse    standard    2913.    Preprocessor1_Model1
2 rsq     standard       0.919 Preprocessor1_Model1

# Get coefficients
final_fit |>
  extract_fit_parsnip() |>
  tidy()

# A tibble: 28 × 5
   term                                estimate std.error statistic  p.value
   <chr>                                  <dbl>     <dbl>     <dbl>    <dbl>
 1 (Intercept)                           15335.     2200.     6.97  3.17e-11
 2 total_snowfall                         -152.      215.    -0.707 4.80e- 1
 3 seasons_Spring                        -6645.     3740.    -1.78  7.69e- 2
 4 seasons_Summer                        17050.     3548.     4.81  2.76e- 6
 5 seasons_Winter                        -7253.     3203.    -2.26  2.45e- 2
 6 holiday_No.Holiday                     6230.     2074.     3.00  2.96e- 3
 7 weekend_weekend                       -2445.      394.    -6.20  2.50e- 9
 8 seasons_Spring_x_holiday_No.Holiday    1843.     3777.     0.488 6.26e- 1
 9 seasons_Summer_x_holiday_No.Holiday   -2830.     2908.    -0.973 3.31e- 1
10 seasons_Winter_x_holiday_No.Holiday   -4336.     2470.    -1.76  8.04e- 2
# ℹ 18 more rows
